…
data("instacart")

instacart_df = 
  instacart %>% 
  as_tibble()

instacart_df = 
  instacart_df %>% 
  janitor::clean_names()

instacart_df
```

    ## # A tibble: 1,384,617 × 15
    ##    order_id product_id add_to_cart_order reordered user_id eval_set order_number
    ##       <int>      <int>             <int>     <int>   <int> <chr>           <int>
    ##  1        1      49302                 1         1  112108 train               4
    ##  2        1      11109                 2         1  112108 train               4
    ##  3        1      10246                 3         0  112108 train               4
    ##  4        1      49683                 4         0  112108 train               4
    ##  5        1      43633                 5         1  112108 train               4
    ##  6        1      13176                 6         0  112108 train               4
    ##  7        1      47209                 7         0  112108 train               4
    ##  8        1      22035                 8         1  112108 train               4
    ##  9       36      39612                 1         0   79431 train              23
    ## 10       36      19660                 2         1   79431 train              23
    ## # ℹ 1,384,607 more rows
    ## # ℹ 8 more variables: order_dow <int>, order_hour_of_day <int>,
    ## #   days_since_prior_order <int>, product_name <chr>, aisle_id <int>,
    ## #   department_id <int>, aisle <chr>, department <chr>
…
``` r
#aligned aisles
#view(aligned_aisles_df)

asiles_df = 
  
  instacart_df %>% 
  
  count(aisle)

asiles_df
```

    ## # A tibble: 134 × 2
    ##    aisle                      n
    ##    <chr>                  <int>
    ##  1 air fresheners candles  1067
    ##  2 asian foods             7007
    ##  3 baby accessories         306
    ##  4 baby bath body care      328
    ##  5 baby food formula      13198
    ##  6 bakery desserts         1501
    ##  7 baking ingredients     13088
    ##  8 baking supplies decor   1094
    ##  9 beauty                   287
    ## 10 beers coolers           1839
    ## # ℹ 124 more rows
…
popular_asiles_df = 
  
  asiles_df %>% 
  
  filter(n > 10000) %>% 
  
  arrange(desc(n))

popular_asiles_df
```

    ## # A tibble: 39 × 2
    ##    aisle                              n
    ##    <chr>                          <int>
    ##  1 fresh vegetables              150609
    ##  2 fresh fruits                  150473
    ##  3 packaged vegetables fruits     78493
    ##  4 yogurt                         55240
    ##  5 packaged cheese                41699
    ##  6 water seltzer sparkling water  36617
    ##  7 milk                           32644
    ##  8 chips pretzels                 31269
    ##  9 soy lactosefree                26240
    ## 10 bread                          23635
    ## # ℹ 29 more rows
…
library(p8105.datasets)

data("brfss_smart2010")

brfss_df = 
  brfss_smart2010 %>% 
  as_tibble()

brfss_df
```

    ## # A tibble: 134,203 × 23
    ##     Year Locationabbr Locationdesc     Class Topic Question Response Sample_Size
    ##    <int> <chr>        <chr>            <chr> <chr> <chr>    <chr>          <int>
    ##  1  2010 AL           AL - Jefferson … Heal… Over… How is … Excelle…          94
    ##  2  2010 AL           AL - Jefferson … Heal… Over… How is … Very go…         148
    ##  3  2010 AL           AL - Jefferson … Heal… Over… How is … Good             208
    ##  4  2010 AL           AL - Jefferson … Heal… Over… How is … Fair             107
    ##  5  2010 AL           AL - Jefferson … Heal… Over… How is … Poor              45
    ##  6  2010 AL           AL - Jefferson … Heal… Fair… Health … Good or…         450
    ##  7  2010 AL           AL - Jefferson … Heal… Fair… Health … Fair or…         152
    ##  8  2010 AL           AL - Jefferson … Heal… Heal… Do you … Yes              524
    ##  9  2010 AL           AL - Jefferson … Heal… Heal… Do you … No                77
    ## 10  2010 AL           AL - Jefferson … Heal… Unde… Adults … Yes              316
    ## # ℹ 134,193 more rows
    ## # ℹ 15 more variables: Data_value <dbl>, Confidence_limit_Low <dbl>,
    ## #   Confidence_limit_High <dbl>, Display_order <int>, Data_value_unit <chr>,
    ## #   Data_value_type <chr>, Data_Value_Footnote_Symbol <chr>,
    ## #   Data_Value_Footnote <chr>, DataSource <chr>, ClassId <chr>, TopicId <chr>,
    ## #   LocationID <chr>, QuestionID <chr>, RESPID <chr>, GeoLocation <chr>
…
  janitor::clean_names() %>% 
  
  filter(topic == "Overall Health") %>%  
  
#The the only possible responses for "response" is Excellent, Very Good, Good, Fair, and Poor. Therefore, no other filtering needs to take place here. 

  arrange(match(response, c("Poor", "Fair", "Good", "Very good", "Excellent")))
  
#Verify everything worked.

brfss_df_tidyd
```

    ## # A tibble: 10,625 × 23
    ##     year locationabbr locationdesc     class topic question response sample_size
    ##    <int> <chr>        <chr>            <chr> <chr> <chr>    <chr>          <int>
    ##  1  2010 AL           AL - Jefferson … Heal… Over… How is … Poor              45
    ##  2  2010 AL           AL - Mobile Cou… Heal… Over… How is … Poor              66
    ##  3  2010 AL           AL - Tuscaloosa… Heal… Over… How is … Poor              35
    ##  4  2010 AZ           AZ - Maricopa C… Heal… Over… How is … Poor              62
    ##  5  2010 AZ           AZ - Pima County Heal… Over… How is … Poor              49
    ##  6  2010 AZ           AZ - Pinal Coun… Heal… Over… How is … Poor              30
    ##  7  2010 AR           AR - Benton Cou… Heal… Over… How is … Poor              21
    ##  8  2010 AR           AR - Pulaski Co… Heal… Over… How is … Poor              36
    ##  9  2010 AR           AR - Washington… Heal… Over… How is … Poor              16
    ## 10  2010 CA           CA - Alameda Co… Heal… Over… How is … Poor              23
    ## # ℹ 10,615 more rows
    ## # ℹ 15 more variables: data_value <dbl>, confidence_limit_low <dbl>,
    ## #   confidence_limit_high <dbl>, display_order <int>, data_value_unit <chr>,
    ## #   data_value_type <chr>, data_value_footnote_symbol <chr>,
    ## #   data_value_footnote <chr>, data_source <chr>, class_id <chr>,
    ## #   topic_id <chr>, location_id <chr>, question_id <chr>, respid <chr>,
    ## #   geo_location <chr>
…
  filter(year == "2002") %>%  
  
  rename(state = locationabbr) %>% 
  
  group_by(state) %>% 
  
  summarize(count = n()) %>% 
  
  filter(count >= 7)


brfss_df_tidyd_2002
```

    ## # A tibble: 36 × 2
    ##    state count
    ##    <chr> <int>
    ##  1 AZ       10
    ##  2 CO       20
    ##  3 CT       35
    ##  4 DE       15
    ##  5 FL       35
    ##  6 GA       15
    ##  7 HI       20
    ##  8 ID       10
    ##  9 IL       15
    ## 10 IN       10
    ## # ℹ 26 more rows
…
  filter(year == "2010")  %>%  
  
  rename(state = locationabbr) %>% 
  
  group_by(state) %>% 

  count(state) %>% 
  
  filter(n >= 7)
  
brfss_df_tidyd_2010
```

    ## # A tibble: 45 × 2
    ## # Groups:   state [45]
    ##    state     n
    ##    <chr> <int>
    ##  1 AL       15
    ##  2 AR       15
    ##  3 AZ       15
    ##  4 CA       60
    ##  5 CO       35
    ##  6 CT       25
    ##  7 DE       15
    ##  8 FL      205
    ##  9 GA       20
    ## 10 HI       20
    ## # ℹ 35 more rows
…
  group_by(year, state, response) %>% 
  
  summarize(mean_state_value = mean(data_value, na.rm = TRUE))
```

    ## `summarise()` has grouped output by 'year', 'state'. You can override using the
    ## `.groups` argument.

``` r
#Verify it worked

brfss_df_tidyd_spagehetti_df
```

    ## # A tibble: 443 × 4
    ## # Groups:   year, state [443]
    ##     year state response  mean_state_value
    ##    <int> <chr> <chr>                <dbl>
    ##  1  2002 AK    Excellent             27.9
    ##  2  2002 AL    Excellent             18.5
    ##  3  2002 AR    Excellent             24.1
    ##  4  2002 AZ    Excellent             24.1
    ##  5  2002 CA    Excellent             22.7
    ##  6  2002 CO    Excellent             23.1
    ##  7  2002 CT    Excellent             29.1
    ##  8  2002 DC    Excellent             29.3
    ##  9  2002 DE    Excellent             20.9
    ## 10  2002 FL    Excellent             25.7
    ## # ℹ 433 more rows
…
  rename(county = locationdesc) %>% 
  
  select(year, state, county, response, data_value) %>% 
  
  filter(state == "NY") %>% 
  
  filter(year == 2006) %>% 
  
  mutate(county = recode(county, "NY - Kings County" = "Kings County", "NY - New York County" = "New York County", "NY - Suffolk County" = "Suffolk County", "NY - Nassau County" = "Nassau County", "NY - Queens County" = "Queens County", "NY - Westchester County" = "Weschester County"))

brfss_df_tidyd_data_distribution_2006_df
```

    ## # A tibble: 30 × 5
    ##     year state county            response data_value
    ##    <int> <chr> <chr>             <chr>         <dbl>
    ##  1  2006 NY    Kings County      Poor            3.3
    ##  2  2006 NY    Nassau County     Poor            3.5
    ##  3  2006 NY    New York County   Poor            3.9
    ##  4  2006 NY    Queens County     Poor            2.3
    ##  5  2006 NY    Suffolk County    Poor            2.7
    ##  6  2006 NY    Weschester County Poor            1.9
    ##  7  2006 NY    Kings County      Fair           15.3
    ##  8  2006 NY    Nassau County     Fair           11.6
    ##  9  2006 NY    New York County   Fair           11.5
    ## 10  2006 NY    Queens County     Fair           16.3
    ## # ℹ 20 more rows
…
  rename(county = locationdesc) %>% 
  
  select(year, state, county, response, data_value) %>% 
  
  filter(state == "NY") %>% 
  
  filter(year == 2010) %>% 
  
  mutate(county = recode(county, "NY - Kings County" = "Kings County", "NY - New York County" = "New York County", "NY - Suffolk County" = "Suffolk County", "NY - Nassau County" = "Nassau County", "NY - Queens County" = "Queens County", "NY - Westchester County" = "Weschester County", "NY - Bronx County" = "Brox County", "NY - Erie County" = "Erie County", "NY - Monroe County" = "Monroe County"))

brfss_df_tidyd_data_distribution_2010_df
```

    ## # A tibble: 45 × 5
    ##     year state county            response data_value
    ##    <int> <chr> <chr>             <chr>         <dbl>
    ##  1  2010 NY    Brox County       Poor            4.7
    ##  2  2010 NY    Erie County       Poor            2.5
    ##  3  2010 NY    Kings County      Poor            5.5
    ##  4  2010 NY    Monroe County     Poor            3.5
    ##  5  2010 NY    Nassau County     Poor            2.3
    ##  6  2010 NY    New York County   Poor            4.5
    ##  7  2010 NY    Queens County     Poor            2.7
    ##  8  2010 NY    Suffolk County    Poor            2.6
    ##  9  2010 NY    Weschester County Poor            2.2
    ## 10  2010 NY    Brox County       Fair           16.7
    ## # ℹ 35 more rows
…
    ## Rows: 250 Columns: 1441
    ## ── Column specification ────────────────────────────────────────────────────────
    ## Delimiter: ","
    ## dbl (1441): SEQN, min1, min2, min3, min4, min5, min6, min7, min8, min9, min1...
    ## 
    ## ℹ Use `spec()` to retrieve the full column specification for this data.
    ## ℹ Specify the column types or set `show_col_types = FALSE` to quiet this message.

``` r
nhanes_accel_df
```

    ## # A tibble: 250 × 1,441
    ##     SEQN  min1  min2  min3  min4   min5   min6  min7   min8    min9  min10
    ##    <dbl> <dbl> <dbl> <dbl> <dbl>  <dbl>  <dbl> <dbl>  <dbl>   <dbl>  <dbl>
    ##  1 62161 1.11  3.12  1.47  0.938 1.60   0.145  2.10  0.509   1.63   1.20  
    ##  2 62164 1.92  1.67  2.38  0.935 2.59   5.22   2.39  4.90    1.97   3.13  
    ##  3 62169 5.85  5.18  4.76  6.48  6.85   7.24   6.12  7.48    5.47   6.49  
    ##  4 62174 5.42  3.48  3.72  3.81  6.85   4.45   0.561 1.61    0.698  2.72  
    ##  5 62177 6.14  8.06  9.99  6.60  4.57   2.78   7.10  7.25   10.1    7.49  
    ##  6 62178 0.167 0.429 0.131 1.20  0.0796 0.0487 0.106 0.0653  0.0564 0.0639
    ##  7 62180 0.039 0     0     0     0.369  0.265  0.506 0.638   0      0.011 
    ##  8 62184 1.55  2.81  3.86  4.76  6.10   7.61   4.74  6.73    5.42   4.24  
    ##  9 62186 3.08  2.54  2.63  2.12  1.14   1.68   2.84  2.72    2.13   2.18  
    ## 10 62189 2.81  0.195 0.163 0     0.144  0.180  0.870 0.214   0      0     
    ## # ℹ 240 more rows
    ## # ℹ 1,430 more variables: min11 <dbl>, min12 <dbl>, min13 <dbl>, min14 <dbl>,
    ## #   min15 <dbl>, min16 <dbl>, min17 <dbl>, min18 <dbl>, min19 <dbl>,
    ## #   min20 <dbl>, min21 <dbl>, min22 <dbl>, min23 <dbl>, min24 <dbl>,
    ## #   min25 <dbl>, min26 <dbl>, min27 <dbl>, min28 <dbl>, min29 <dbl>,
    ## #   min30 <dbl>, min31 <dbl>, min32 <dbl>, min33 <dbl>, min34 <dbl>,
    ## #   min35 <dbl>, min36 <dbl>, min37 <dbl>, min38 <dbl>, min39 <dbl>, …
…
``` r
nhanes_covar_df
```

    ## # A tibble: 254 × 5
    ##    ...1  `1 = male` ...3  ...4  `1 = Less than high school`
    ##    <chr> <chr>      <chr> <chr> <chr>                      
    ##  1 <NA>  2 = female <NA>  <NA>  2 =  High school equivalent
    ##  2 <NA>  <NA>       <NA>  <NA>  3  = More than high school 
    ##  3 <NA>  <NA>       <NA>  <NA>  <NA>                       
    ##  4 SEQN  sex        age   BMI   education                  
    ##  5 62161 1          22    23.3  2                          
    ##  6 62164 2          44    23.2  3                          
    ##  7 62169 1          21    20.1  2                          
    ##  8 62174 1          80    33.9  3                          
    ##  9 62177 1          51    20.1  2                          
    ## 10 62178 1          80    28.5  2                          
    ## # ℹ 244 more rows
…
``` r
#view(nhanes_covar_tidyd_df)
nhanes_accel_tidyd_df = 
  
  nhanes_accel_df %>%  
  
  rename("sequence" = "SEQN") %>% 
  
  mutate(sequence = as.numeric(sequence))

nhanes_accel_tidyd_df
```

    ## # A tibble: 250 × 1,441
    ##    sequence  min1  min2  min3  min4   min5   min6  min7   min8    min9  min10
    ##       <dbl> <dbl> <dbl> <dbl> <dbl>  <dbl>  <dbl> <dbl>  <dbl>   <dbl>  <dbl>
    ##  1    62161 1.11  3.12  1.47  0.938 1.60   0.145  2.10  0.509   1.63   1.20  
    ##  2    62164 1.92  1.67  2.38  0.935 2.59   5.22   2.39  4.90    1.97   3.13  
    ##  3    62169 5.85  5.18  4.76  6.48  6.85   7.24   6.12  7.48    5.47   6.49  
    ##  4    62174 5.42  3.48  3.72  3.81  6.85   4.45   0.561 1.61    0.698  2.72  
    ##  5    62177 6.14  8.06  9.99  6.60  4.57   2.78   7.10  7.25   10.1    7.49  
    ##  6    62178 0.167 0.429 0.131 1.20  0.0796 0.0487 0.106 0.0653  0.0564 0.0639
    ##  7    62180 0.039 0     0     0     0.369  0.265  0.506 0.638   0      0.011 
    ##  8    62184 1.55  2.81  3.86  4.76  6.10   7.61   4.74  6.73    5.42   4.24  
    ##  9    62186 3.08  2.54  2.63  2.12  1.14   1.68   2.84  2.72    2.13   2.18  
    ## 10    62189 2.81  0.195 0.163 0     0.144  0.180  0.870 0.214   0      0     
    ## # ℹ 240 more rows
    ## # ℹ 1,430 more variables: min11 <dbl>, min12 <dbl>, min13 <dbl>, min14 <dbl>,
    ## #   min15 <dbl>, min16 <dbl>, min17 <dbl>, min18 <dbl>, min19 <dbl>,
    ## #   min20 <dbl>, min21 <dbl>, min22 <dbl>, min23 <dbl>, min24 <dbl>,
    ## #   min25 <dbl>, min26 <dbl>, min27 <dbl>, min28 <dbl>, min29 <dbl>,
    ## #   min30 <dbl>, min31 <dbl>, min32 <dbl>, min33 <dbl>, min34 <dbl>,
    ## #   min35 <dbl>, min36 <dbl>, min37 <dbl>, min38 <dbl>, min39 <dbl>, …
…
  filter(age >20) %>% 
  
  filter(!is.na(sex)) %>% 
  
  filter(!is.na(age)) %>% 
  
  filter(!is.na(bmi)) %>% 
  
  filter(!is.na(education))
  
nhanes_covar_tidyd_df
```

    ## # A tibble: 228 × 5
    ##    sequence sex      age bmi   education          
    ##       <dbl> <chr>  <dbl> <chr> <chr>              
    ##  1    62161 male      22 23.3  complete_highschool
    ##  2    62164 female    44 23.2  over_highschool    
    ##  3    62169 male      21 20.1  complete_highschool
    ##  4    62174 male      80 33.9  over_highschool    
    ##  5    62177 male      51 20.1  complete_highschool
    ##  6    62178 male      80 28.5  complete_highschool
    ##  7    62180 male      35 27.9  over_highschool    
    ##  8    62184 male      26 22.1  complete_highschool
    ##  9    62189 female    30 22.4  over_highschool    
    ## 10    62199 male      57 28    over_highschool    
    ## # ℹ 218 more rows

``` r
#view(accel_into_covar_df)

accel_into_covar_df = left_join(nhanes_covar_tidyd_df, nhanes_accel_tidyd_df) 
```

    ## Joining with `by = join_by(sequence)`

``` r
accel_into_covar_df
```

    ## # A tibble: 228 × 1,445
    ##    sequence sex      age bmi   education  min1   min2   min3  min4   min5   min6
    ##       <dbl> <chr>  <dbl> <chr> <chr>     <dbl>  <dbl>  <dbl> <dbl>  <dbl>  <dbl>
    ##  1    62161 male      22 23.3  complete… 1.11  3.12   1.47   0.938 1.60   0.145 
    ##  2    62164 female    44 23.2  over_hig… 1.92  1.67   2.38   0.935 2.59   5.22  
    ##  3    62169 male      21 20.1  complete… 5.85  5.18   4.76   6.48  6.85   7.24  
    ##  4    62174 male      80 33.9  over_hig… 5.42  3.48   3.72   3.81  6.85   4.45  
    ##  5    62177 male      51 20.1  complete… 6.14  8.06   9.99   6.60  4.57   2.78  
    ##  6    62178 male      80 28.5  complete… 0.167 0.429  0.131  1.20  0.0796 0.0487
    ##  7    62180 male      35 27.9  over_hig… 0.039 0      0      0     0.369  0.265 
    ##  8    62184 male      26 22.1  complete… 1.55  2.81   3.86   4.76  6.10   7.61  
    ##  9    62189 female    30 22.4  over_hig… 2.81  0.195  0.163  0     0.144  0.180 
    ## 10    62199 male      57 28    over_hig… 0.031 0.0359 0.0387 0.079 0.109  0.262 
    ## # ℹ 218 more rows
    ## # ℹ 1,434 more variables: min7 <dbl>, min8 <dbl>, min9 <dbl>, min10 <dbl>,
    ## #   min11 <dbl>, min12 <dbl>, min13 <dbl>, min14 <dbl>, min15 <dbl>,
    ## #   min16 <dbl>, min17 <dbl>, min18 <dbl>, min19 <dbl>, min20 <dbl>,
    ## #   min21 <dbl>, min22 <dbl>, min23 <dbl>, min24 <dbl>, min25 <dbl>,
    ## #   min26 <dbl>, min27 <dbl>, min28 <dbl>, min29 <dbl>, min30 <dbl>,
    ## #   min31 <dbl>, min32 <dbl>, min33 <dbl>, min34 <dbl>, min35 <dbl>, …
…
